148.289915,15.127078
148.714305,14.586534
148.851146,14.403855
149.229903,13.613413
149.467010,13.097124
149.661066,12.475106
149.922919,11.600912
150.014770,11.166733
150.257503,9.973886
150.298025,9.702222
150.503635,8.274114
150.520961,8.120291
150.691034,6.561540
150.698550,6.483950
150.848489,4.909397
150.852410,4.871171
151.002854,3.393814
151.006035,3.370591
151.181397,2.091075
151.185420,2.073317
151.410960,1.077708
151.415685,1.065663
151.685826,0.376608
151.691112,0.370443
152.000582,0.009733
152.006304,0.009573
152.349314,0.000000
152.355346,0.005917
152.726607,0.370034
152.732837,0.382057
153.126561,1.142063
153.132886,1.160205
153.543731,2.338526
153.550063,2.362793
153.972695,3.982304
154.400891,6.064395
154.407308,6.095593
154.840832,8.583628
154.847157,8.619925
155.285295,11.456123
155.291516,11.496420
155.733164,14.623291
155.739281,14.666576
156.184215,18.025940
156.190221,18.071273
156.637536,21.605731
156.643421,21.652250
157.092217,25.303737
157.097982,25.350626
157.547812,29.061178
157.553450,29.107694
158.003189,32.819294
158.008697,32.864742
158.454539,36.554087
158.459872,36.598240
158.897295,40.241955
158.902415,40.284600
159.327184,43.859300
159.332050,43.900252
159.740109,47.382333
159.744688,47.421421
160.131541,50.787910
160.135804,50.824986
160.497631,54.051999
160.501545,54.086913
160.833609,57.151275
160.837144,57.183889
161.135401,60.061907
161.138529,60.092091
161.406091,62.816651
161.408861,62.844853
161.649099,65.448393
161.651555,65.475032
161.867142,67.989979
161.869326,68.015445
162.063586,70.474334
162.065535,70.499010
162.241454,72.934983
162.243205,72.959226
162.404314,75.404349
162.405905,75.428508
162.554921,77.915981
162.556382,77.940392
162.696396,80.502286
162.697765,80.527278
162.829048,83.145420
162.830321,83.170809
162.952872,85.826115
162.954053,85.851728
163.067633,88.525574
163.068726,88.551242
163.173757,91.225205
163.174758,91.250753
163.271034,93.905722
163.271960,93.931226
163.359512,96.548581
163.360351,96.573627
163.439351,99.134954
163.440103,99.159379
163.510587,101.645808
163.511255,101.669446
163.567813,104.096458
163.568349,104.119466
163.605845,106.502996
163.606202,106.525543
163.619682,108.881459
163.619809,108.903499
163.604094,111.247079
163.603947,111.268993
163.553657,113.615689
163.553187,113.637648
163.463170,116.003638
163.462326,116.025819
163.327416,118.426287
163.326147,118.448872
163.141402,120.899505
163.139655,120.922684
162.906648,123.410862
162.904426,123.434572
162.624784,125.947659
162.622094,125.971831
162.297362,128.497225
162.294207,128.521792
161.926647,131.046382
161.923022,131.071273
161.513793,133.582937
161.509698,133.608084
161.061064,136.093738
161.056490,136.119061
160.569583,138.566096
160.564528,138.591517
160.041432,140.987337
160.035881,141.012766
159.476371,143.362236
159.470290,143.387769
158.873929,145.695797
158.867277,145.721540
158.233957,147.992768
158.226688,148.018833
157.556169,150.257896
157.548230,150.284403
156.840165,152.496358
156.831494,152.523451
156.085717,154.712912
156.076233,154.740749
155.292591,156.912514
155.282214,156.941276
154.460388,159.099886
154.449003,159.129787
153.599606,161.259006
153.587246,161.289992
152.720870,163.373118
152.707567,163.405101
151.834168,165.425912
151.819962,165.458788
150.950596,167.400464
150.935544,167.434078
150.080080,169.280734
150.064259,169.314887
149.233241,171.049791
149.216769,171.084182
148.420681,172.691419
148.403709,172.725677
147.652577,174.188993
147.635318,174.222616
146.928188,175.552418
146.910649,175.585401
146.246380,176.791449
146.228570,176.823785
145.605601,177.916250
145.587515,177.947960
145.004897,178.936769
144.986567,178.967886
144.443377,179.863410
144.424817,179.893998
143.919449,180.706133
143.900684,180.736291
143.432184,181.474623
143.413253,181.504457
142.980260,182.179268
142.961205,182.208972
142.561848,182.824348
142.542670,182.853888
142.174873,183.414163
142.155621,183.443510
141.817843,183.952557
141.798509,183.981686
141.488437,184.444039
141.469026,184.472963
141.184827,184.892233
141.165370,184.920931
140.905014,185.301876
140.885514,185.330412
140.647216,185.676756
140.627656,185.705201
140.409571,186.021194
140.389921,186.049639
140.190909,186.335273
140.170280,186.364929
139.990684,186.619767
139.967206,186.653132
139.808040,186.874803
139.778886,186.915482
139.641288,187.102052
139.602896,187.154348
139.489278,187.303225
139.436204,187.373462
139.349415,187.482311
139.275198,187.577098
139.218885,187.644179
139.115559,187.771238
139.030412,187.870860
138.952330,187.959792
138.905345,188.011149
138.784925,188.140422
138.615101,188.312107
138.614200,188.312997
138.613026,188.314067
138.438444,188.463730
138.298387,188.567596
138.260348,188.595386
138.211088,188.624667
138.079516,188.692977
137.980840,188.727327
137.897146,188.756244
137.780811,188.773945
137.733723,188.776917
137.714204,188.778143
137.604058,188.761391
137.531292,188.750347
137.475350,188.730745
137.349397,188.687418
137.348449,188.686920
137.346294,188.685809
137.222107,188.611246
137.169840,188.581063
137.098111,188.527191
136.992688,188.451030
136.976582,188.436873
136.941359,188.407024
136.855738,188.327693
136.819060,188.295633
136.736427,188.210915
136.649514,188.126275
136.618939,188.092393
136.544154,188.013261
136.500685,187.964381
136.484119,187.946732
136.381189,187.824754
136.323912,187.759942
136.259214,187.680379
136.166129,187.569501
136.130975,187.524604
136.006710,187.368764
135.992965,187.350574
135.851791,187.165572
135.842299,187.152989
135.841358,187.151757
135.677932,186.928739
135.667201,186.914155
135.496797,186.676321
135.479794,186.652615
135.297416,186.393417
135.277250,186.364797
135.079336,186.080318
135.057979,186.049639
134.841658,185.736180
134.820279,185.705200
134.583706,185.361363
134.562403,185.330412
134.303776,184.951985
134.282557,184.920931
134.000066,184.504181
133.978902,184.472962
133.670532,184.013157
133.649428,183.981684
133.313120,183.475195
133.292088,183.443509
132.926211,182.885801
132.905263,182.853887
132.507565,182.241072
132.486738,182.208972
132.055366,181.536727
132.034657,181.504457
131.567793,180.768678
131.547242,180.736289
131.043466,179.926714
131.023110,179.893999
130.481248,179.001034
130.461137,178.967894
129.880266,177.981654
129.860421,177.947960
129.238912,176.858071
129.219366,176.823783
128.556318,175.620334
128.537071,175.585402
127.831315,174.258201
127.812394,174.222616
127.062802,172.761908
127.044211,172.725677
126.249424,171.121053
126.231157,171.084183
125.401353,169.351812
125.383667,169.314887
124.529327,167.470639
124.512391,167.434079
123.643795,165.494650
123.627738,165.458787
122.755461,163.440047
122.740360,163.405099
121.874560,161.323851
121.860473,161.289991
121.011950,159.162453
120.998920,159.129788
120.177661,156.972667
120.165713,156.941276
119.382548,154.770811
119.371700,154.740749
118.626304,152.552431
118.616434,152.523451
117.908694,150.312513
117.899695,150.284403
117.229456,148.046246
117.221248,148.018833
116.588137,145.748418
116.580641,145.721540
115.984495,143.414246
115.977653,143.387770
115.418073,141.038965
115.411835,141.012766
114.889074,138.617548
114.883391,138.591517
114.396610,136.145028
114.391442,136.119061
113.919286,133.649575
113.914425,133.624148
113.434785,131.159968
113.430126,131.136009
112.921026,128.705023
112.916553,128.683621
112.356029,126.313238
112.351919,126.295791
111.713990,124.045703
111.710630,124.033796
110.969320,121.963995
110.967514,121.958931
110.429415,120.829345
110.097712,120.132109
110.095978,120.129524
109.075684,118.613770
109.065848,118.603148
107.907824,117.357240
107.884097,117.338212
106.601300,116.315116
106.556342,116.287546
105.162426,115.440088
105.088520,115.403996
103.598145,114.685079
103.487035,114.640753
101.893855,114.013316
101.738088,113.960390
100.034018,113.387912
99.829231,113.325439
98.003430,112.772186
97.749338,112.698426
95.786786,112.129633
95.492685,112.050346
93.407446,111.486413
93.085540,111.407992
90.888336,110.869096
90.550948,110.797453
88.252956,110.303959
87.911233,110.243817
85.524635,109.817464
85.187184,109.772227
82.726563,109.435950
82.399137,109.407870
79.882031,109.185450
79.568201,109.175957
77.014153,109.092822
76.715758,109.102838
74.146052,109.184261
73.862408,109.211806
71.282946,109.458466
71.014602,109.501589
68.428665,109.913941
68.176707,109.970539
65.588414,110.549354
65.354797,110.616906
62.766542,111.363641
62.553781,111.439074
59.967753,112.355005
59.778559,112.434746
57.196406,113.522406
57.033431,113.602248
54.457228,114.864505
54.322947,114.939776
51.754995,116.379575
51.653194,116.445346
49.117717,118.084811
49.048935,118.136430
46.573792,119.997321
46.535776,120.030739
44.151931,122.134206
44.139652,122.146973
42.808098,123.540779
41.889000,124.501106
41.879762,124.510701
39.852896,127.120771
39.827249,127.153556
38.098322,130.036752
38.065171,130.091624
36.696663,133.277128
36.664273,133.352043
35.720138,136.868690
35.695074,136.961774
35.120517,140.744091
35.104138,140.851833
34.844776,144.835329
34.837038,144.954187
34.840139,149.073012
34.840216,149.199459
35.053133,153.389430
35.059674,153.519234
35.445503,157.759085
35.457317,157.889532
35.978903,162.157530
35.994614,162.286358
36.615254,166.560315
36.633476,166.685834
37.316173,170.942945
37.335594,171.064006
38.070221,175.308535
38.090326,175.424515
38.866674,179.660736
38.886992,179.771410
39.694984,184.003107
39.715166,184.108572
40.544508,188.339404
40.564187,188.439611
41.404478,192.673434
41.423410,192.768621
42.263980,197.009002
42.281946,197.099448
43.112759,201.349894
43.129598,201.435905
43.939632,205.699588
43.955253,205.781685
44.745048,210.057674
44.759583,210.136288
45.529349,214.423256
45.542844,214.498376
46.292185,218.795091
46.304784,218.867277
47.034339,223.172863
47.046096,223.242256
47.755808,227.555532
47.766789,227.622248
48.457067,231.942404
48.467313,232.006547
49.138065,236.332163
49.147651,236.394007
49.799272,240.724172
49.808270,240.783971
50.439435,245.120116
50.447826,245.177782
51.057336,249.520794
51.065165,249.576588
51.651847,253.927311
51.659153,253.981488
52.221878,258.341481
52.228670,258.394112
52.766287,262.764425
52.772577,262.815577
53.283655,267.197139
53.289495,267.247221
53.773175,271.641303
53.778557,271.690196
54.233400,276.097771
54.238362,276.145874
54.663706,280.565771
54.668263,280.613104
55.063637,285.043944
55.067793,285.090529
55.432489,289.531010
55.436267,289.577036
55.769363,294.025547
55.772783,294.071200
56.074056,298.526454
56.077117,298.571748
56.345664,303.032529
56.348370,303.077482
56.583267,307.542541
56.585626,307.587336
56.786874,312.055014
56.788884,312.099660
56.959387,316.563919
56.961094,316.608552
57.104911,321.062907
57.106343,321.107316
57.226590,325.545632
57.227791,325.589945
57.328292,330.005543
57.329298,330.049708
57.413420,334.436693
57.414265,334.480666
57.485821,338.832776
57.486539,338.876502
57.548671,343.187034
57.549298,343.230452
57.606057,347.493680
57.606626,347.536578
57.654175,351.757947
57.654655,351.800543
57.689652,355.985812
57.690006,356.028013
57.709304,360.182818
57.709497,360.224689
57.709256,364.354882
57.709255,364.396643
57.686602,368.508007
57.686372,368.549578
57.637463,372.647705
57.636968,372.689158
57.558452,376.779807
57.557658,376.821218
57.446170,380.909845
57.445039,380.951288
57.301695,385.033519
57.300238,385.074973
57.126168,389.146164
57.124397,389.187602
56.920722,393.242466
56.918643,393.283854
56.686488,397.318188
56.684112,397.359507
56.424600,401.368421
56.421919,401.409790
56.135963,405.388339
56.132989,405.429719
55.821946,409.373370
55.818682,409.414736
55.483449,413.318784
55.479901,413.360099
55.119817,417.220783
55.115956,417.262168
54.729916,421.076385
54.725720,421.117819
54.312847,424.881925
54.308298,424.923380
53.867699,428.634203
53.862774,428.675658
53.393126,432.329310
53.387782,432.370875
52.888661,435.964361
52.882875,436.006011
52.353179,439.535932
52.346936,439.577494
51.785553,443.040107
51.778810,443.081686
51.184435,446.488342
51.177150,446.530088
50.548455,449.891558
50.540586,449.933619
49.876249,453.260796
49.867781,453.303195
49.166491,456.607503
49.157348,456.650557
48.417335,459.942394
48.407498,459.986143
47.627892,463.276874
47.617309,463.321524
46.796137,466.621994
46.784750,466.667753
45.921131,469.988767
45.908917,470.035716
45.004450,473.370999
44.991394,473.419127
44.047453,476.761596
44.033533,476.810882
43.051709,480.154416
43.036945,480.204695
42.019226,483.542682
42.003646,483.593771
40.951192,486.919375
40.934778,486.971243
39.849634,490.277800
39.832366,490.330416
38.715884,493.611701
38.697794,493.664868
37.551521,496.914295
37.532650,496.967806
36.360842,500.182880
36.341207,500.236754
35.147264,503.415453
35.126887,503.469720
33.915246,506.610034
33.894215,506.664545
32.668315,509.763666
32.646586,509.818616
31.410646,512.874846
31.388312,512.930081
30.146217,515.940985
30.123237,515.996709
28.878821,518.959726
28.855207,519.015958
27.612526,521.929003
27.588314,521.985768
26.344599,524.847336
26.319595,524.904870
25.072258,527.713934
25.046342,527.772302
23.792666,530.526978
23.765606,530.586450
22.503271,533.286008
22.474894,533.346697
21.201150,535.989184
21.171264,536.051187
19.883402,538.635756
19.851776,538.699235
18.547678,541.224211
18.513916,541.289572
17.190765,543.753221
17.154537,543.820692
15.825530,546.212503
15.787003,546.281828
14.465109,548.589769
14.424226,548.661158
13.122498,550.874183
13.079338,550.947550
11.810538,553.054578
11.765274,553.129744
10.542308,555.119641
10.495176,555.196340
9.330835,557.058237
9.282166,557.136045
8.188659,558.859178
8.138963,558.937494
7.129164,560.511496
7.079148,560.589460
6.148053,562.024256
6.097730,562.101796
5.240973,563.407062
5.190420,563.484083
4.403422,564.669553
4.352681,564.746000
3.630894,565.821936
3.579971,565.897848
2.919026,566.873266
2.867976,566.948589
2.263142,567.833599
2.211951,567.908484
1.658726,568.712805
1.607387,568.787459
1.101288,569.520190
1.049731,569.594851
0.588700,570.257310
0.534907,570.334601
0.119261,570.924102
0.058826,571.009971
0.000000,571.091889
-0.000000,288.694480
27.639199,288.694480
27.639199,287.305503
-0.000000,287.305504
-0.000000,287.305504
0.000001,287.305504
-0.000000,287.305504
-0.000000,128.164293
0.091658,128.161325
0.729927,128.120737
1.735100,128.057553
3.006913,127.919317
3.276657,127.886629
3.465718,127.850767
4.677910,127.624571
5.705317,127.334385
5.941930,127.268723
6.323775,127.111153
7.040434,126.795726
7.320964,126.616046
7.980164,126.202254
8.463817,125.779985
8.807300,125.486106
9.368745,124.846443
9.554606,124.638548
10.141283,123.802900
10.250162,123.650098
10.846449,122.633443
10.918154,122.512422
11.521858,121.331310
11.577532,121.222962
12.195793,119.889982
12.246818,119.780092
12.891485,118.300970
12.943200,118.182269
13.631431,116.553763
13.684420,116.428285
14.407369,114.647869
14.459823,114.518671
15.208389,112.584632
15.258696,112.454631
16.023274,110.365243
16.070328,110.236637
16.840824,107.990807
16.883843,107.865477
17.650193,105.463277
17.688746,105.342467
18.440374,102.783617
18.474384,102.667918
19.200223,99.953371
19.229830,99.842724
19.919151,96.973895
19.944658,96.867823
20.596963,93.881120
20.619079,93.779890
21.233914,90.711077
21.253136,90.615190
21.830632,87.500993
21.847482,87.410194
22.387336,84.287401
22.402133,84.201824
22.904077,81.106860
22.917112,81.026556
23.381576,77.995927
23.393081,77.920885
23.819922,74.990623
23.830055,74.921072
24.219325,72.128337
24.228263,72.064245
24.591790,69.405180
24.599929,69.345676
24.949899,66.816504
24.957542,66.761254
25.305429,64.358151
25.312884,64.306683
25.670858,62.025518
25.678405,61.977440
26.058436,59.814458
26.066347,59.769424
26.480489,57.720293
26.488964,57.678325
26.948745,55.738816
26.958039,55.699637
27.476162,53.865538
27.486467,53.829041
28.047654,52.088808
28.058641,52.054751
28.648699,50.396424
28.660041,50.364539
29.264309,48.776339
29.275716,48.746354
29.879522,47.216610
29.890713,47.188254
30.479136,45.704727
30.489849,45.677719
31.048395,44.229155
31.058393,44.203235
31.572343,42.777628
31.581393,42.752523
32.036222,41.337915
32.044112,41.313367
32.455817,39.946368
32.462874,39.922944
32.848367,38.639679
32.854895,38.617938
33.230198,37.455031
33.236493,37.435536
33.618549,36.428898
33.624886,36.412193
34.029746,35.598681
34.036399,35.585318
34.480793,35.000902
34.488015,34.991404
34.988472,34.672700
34.996514,34.667582
35.569564,34.650853
35.578647,34.650587
36.190388,34.908954
36.199984,34.913006
36.816736,35.419097
36.826294,35.426943
37.413837,36.153528
37.422907,36.164743
37.947244,37.084773
37.955371,37.099028
38.382955,38.184594
38.389683,38.201677
38.686401,39.425770
38.691185,39.445502
38.823412,40.780014
38.825631,40.802382
38.759758,42.220099
38.758596,42.245161
38.565993,43.735108
38.562393,43.762978
38.313991,45.314971
38.309092,45.345685
38.076488,46.949933
38.071693,46.983148
37.925169,48.629733
37.922053,48.664763
37.949232,50.316327
37.949796,50.351191
38.238693,51.970518
38.244486,52.003163
38.884020,53.553770
38.895510,53.581695
39.977023,55.026224
39.992582,55.047008
41.452600,56.394999
41.466315,56.407661
43.243328,57.668059
43.248233,57.671541
43.957836,58.084261
45.268588,58.848767
45.282986,58.856009
47.459742,59.947635
47.501562,59.966091
49.796754,60.976103
49.870443,61.005178
52.254095,61.943950
52.361988,61.982736
54.806566,62.860126
54.948053,62.907362
57.429281,63.734786
57.602234,63.787358
60.113185,64.549601
60.314733,64.603991
62.849673,65.287385
63.076802,65.339993
65.630090,65.930060
65.879460,65.977138
68.445415,66.460234
68.714805,66.498326
71.287015,66.860051
71.573865,66.885556
74.146054,67.111870
74.448888,67.121314
77.014153,67.197944
77.332766,67.187636
79.882031,67.100812
80.215111,67.071897
82.731747,66.848351
83.076310,66.802452
85.545038,66.468293
85.894966,66.408166
88.303882,65.988749
88.651309,65.918096
90.990196,65.437580
91.324972,65.361328
93.585598,64.842385
93.896092,64.766405
96.072032,64.231499
96.347165,64.161716
98.431543,63.632549
98.662302,63.574063
100.645574,63.073372
100.829569,63.022104
102.721542,62.499075
102.860791,62.452543
104.666278,61.854600
104.765681,61.812288
106.486715,61.084631
106.553285,61.047409
108.189515,60.134249
108.230400,60.102856
109.758571,58.928944
109.780899,58.904829
111.177353,57.395128
111.187043,57.380146
112.429654,55.458543
112.431445,55.454492
112.837888,54.537672
113.497020,53.052505
113.500008,53.045759
114.407048,50.252101
114.412385,50.235612
115.184772,47.133346
115.191004,47.108225
115.853260,43.775949
115.859655,43.743703
116.436851,40.259267
116.443030,40.221934
116.956619,36.623516
116.962453,36.582629
117.433712,32.907774
117.439230,32.864742
117.889093,29.152123
117.894477,29.107692
118.344436,25.396075
118.349945,25.350627
118.798884,21.698040
118.804514,21.652251
119.251751,18.116674
119.257494,18.071274
119.702566,14.710805
119.708425,14.666577
120.150453,11.538629
120.156416,11.496420
120.594719,8.659206
120.600787,8.619925
121.034465,6.130957
121.040627,6.095593
121.468991,4.012691
121.475239,3.982304
121.481740,3.957378
121.903981,2.338526
121.910481,2.319892
122.321374,1.142064
122.327770,1.129719
122.721328,0.370033
122.727516,0.363964
123.098614,0.000000
123.104475,0.000165
123.447363,0.009734
123.452768,0.016036
123.761890,0.376607
123.766710,0.388894
124.036976,1.077708
124.041067,1.095771
124.266521,2.091076
124.269746,2.114609
124.445083,3.393814
124.447849,3.421245
124.598487,4.909279
124.600116,4.926985
124.675010,5.728239
124.752493,6.543172
124.754235,6.561152
124.931173,8.180629
124.941591,8.273127
125.155711,9.760348
125.187263,9.971880
125.440962,11.219458
125.520912,11.597636
125.797251,12.519746
125.976022,13.092513
126.231127,13.647989
126.590544,14.398049
126.749240,14.609911
127.240923,15.236383
127.368727,15.390646
127.414333,15.443777
128.099985,15.966019
128.458846,16.230001
128.909618,16.448176
129.683271,16.809902
129.798965,16.844855
130.079400,16.926683
130.776056,17.113255
131.082830,17.193647
131.820549,17.306418
132.616426,17.425590
132.922229,17.449222
133.661959,17.505016
134.076939,17.532328
134.255060,17.543963
135.273142,17.565454
135.967192,17.579996
136.495719,17.579996
137.714206,17.579995
137.780856,17.579995
138.971605,17.579996
139.461279,17.579996
140.194241,17.564641
141.173835,17.543965
141.390091,17.529837
141.893908,17.496679
142.545006,17.447531
142.814133,17.426767
143.645993,17.302200
144.348444,17.194813
144.689464,17.105432
145.464379,16.897893
145.667210,16.838714
145.750848,16.813447
146.555573,16.437229
146.976711,16.233411
147.363922,15.948637
148.022428,15.446940
148.092736,15.365028
148.289915,15.127078